…
    ## Warning in evalq(as.numeric(victim_age), <environment>): NAs introduced by
    ## coercion

``` r
data  
```

    ## # A tibble: 48,507 x 14
    ##    uid   reported_date victim_last victim_first victim_race victim_age
    ##    <chr>         <int> <chr>       <chr>        <fct>            <dbl>
    ##  1 Alb-~      20100504 GARCIA      JUAN         non-white           78
    ##  2 Alb-~      20100216 MONTOYA     CAMERON      non-white           17
    ##  3 Alb-~      20100601 SATTERFIELD VIVIANA      white               15
    ##  4 Alb-~      20100101 MENDIOLA    CARLOS       non-white           32
    ##  5 Alb-~      20100102 MULA        VIVIAN       white               72
    ##  6 Alb-~      20100126 BOOK        GERALDINE    white               91
    ##  7 Alb-~      20100127 MALDONADO   DAVID        non-white           52
    ##  8 Alb-~      20100127 MALDONADO   CONNIE       non-white           52
    ##  9 Alb-~      20100130 MARTIN-LEY~ GUSTAVO      white               56
    ## 10 Alb-~      20100210 HERRERA     ISRAEL       non-white           43
    ## # ... with 48,497 more rows, and 8 more variables: victim_sex <chr>,
    ## #   city <chr>, state <chr>, lat <dbl>, lon <dbl>, disposition <chr>,
    ## #   city_state <chr>, ifsolved <dbl>
…
